{
  "project_info": {
    "project_number": "749046149589",
    "firebase_url": "https://conta-uber.firebaseio.com",
    "project_id": "conta-uber",
    "storage_bucket": "conta-uber.appspot.com"
  },
  "client": [
    {
      "client_info": {
        "mobilesdk_app_id": "1:749046149589:android:ab31b4b6a60b6420318d5c",
        "android_client_info": {
          "package_name": "br.com.digio.uber.abstractFirebase"
        }
      },
      "oauth_client": [
        {
          "client_id": "749046149589-609o7cims8hc3ps6ej5r8jf768k4bb6p.apps.googleusercontent.com",
          "client_type": 3
        }
      ],
      "api_key": [
        {
          "current_key": "AIzaSyDoIb5H39FPLbK4wWHk7MGiek9ladArxyI"
        }
      ],
      "services": {
        "appinvite_service": {
          "other_platform_oauth_client": [
            {
              "client_id": "749046149589-609o7cims8hc3ps6ej5r8jf768k4bb6p.apps.googleusercontent.com",
              "client_type": 3
            },
            {
              "client_id": "749046149589-9o0dn7i7hv49s2mmmru40eb2i1hourpf.apps.googleusercontent.com",
              "client_type": 2,
              "ios_info": {
                "bundle_id": "br.com.digio.account.driver-ios"
              }
            }
          ]
        }
      }
    }
  ],
  "configuration_version": "1"
}